newmtl TempleDome_Interior
Kd 0.784314 0.784314 0.784314
Ke 0 0 0
Ka 1 1 1
Ks 0 0 0
Ns 400
Tr 0
d 1
Ni 1
Tf 1 1 1
map_Kd F:cs-udemy/SlowSummerJam/Assets/Textures/TempleUV_Layout.jpg

newmtl TempleDome
Kd 0.784314 0.784314 0.784314
Ke 0 0 0
Ka 1 1 1
Ks 0 0 0
Ns 400
Tr 0
d 1
Ni 1
Tf 1 1 1
map_Kd F:cs-udemy/SlowSummerJam/Assets/Textures/TempleUV_Layout.jpg

newmtl TempleFloor_Bottom
Kd 0.784314 0.784314 0.784314
Ke 0 0 0
Ka 1 1 1
Ks 0 0 0
Ns 400
Tr 0
d 1
Ni 1
Tf 1 1 1
map_Kd F:cs-udemy/SlowSummerJam/Assets/Textures/TempleUV_Layout.jpg

newmtl TempleFloor
Kd 0.784314 0.784314 0.784314
Ke 0 0 0
Ka 1 1 1
Ks 0 0 0
Ns 400
Tr 0
d 1
Ni 1
Tf 1 1 1
map_Kd F:cs-udemy/SlowSummerJam/Assets/Textures/TempleUV_Layout.jpg

newmtl TempleWalls_Interior
Kd 0.784314 0.784314 0.784314
Ke 0 0 0
Ka 1 1 1
Ks 0 0 0
Ns 400
Tr 0
d 1
Ni 1
Tf 1 1 1
map_Kd F:cs-udemy/SlowSummerJam/Assets/Textures/TempleUV_Layout.jpg

newmtl TempleWalls
Kd 0.784314 0.784314 0.784314
Ke 0 0 0
Ka 1 1 1
Ks 0 0 0
Ns 400
Tr 0
d 1
Ni 1
Tf 1 1 1
map_Kd F:cs-udemy/SlowSummerJam/Assets/Textures/TempleUV_Layout.jpg

