####
#
#	OBJ File Generated by LightWave3D
#	LightWave3D OBJ Export v2.3
#
####
o Temple_Floor.obj
mtllib Temple_Floor.mtl
g default
v 6.73523 -0.4 -16.2603
v 6.75544 -0.4 -16.2507
v 8.29658 -0.4 -15.5218
v 8.31576 -0.4 -15.5103
v 5.10901 -0.4 -16.8421
v 5.13006 -0.4 -16.8346
v 4.80247 0.036 -15.8316
v 3.43359 -0.4 -17.2618
v 3.45528 -0.4 -17.2564
v 3.22757 0.036 -16.2261
v 1.31113 0.81411 -17.5356
v 1.49895 0.81411 -16.4704
v 1.35999 0.13 -17.5332
v 1.54782 0.13 -16.468
v 0.111657 0.13 -17.5945
v 0.0408372 0.13 -16.542
v 0.0223314 -0.4 -17.5989
v 1.7251 -0.4 -17.5153
v 1.74722 -0.4 -17.512
v 1.6216 0.036 -16.4643
v -1.48215 0.13 -17.5272
v -1.29754 0.13 -16.4803
v -1.43412 0.81411 -17.5295
v -1.24952 0.81411 -16.4826
v -0.111657 0.13 -17.5945
v -0.0408372 0.13 -16.542
v -1.74722 -0.4 -17.512
v -1.7251 -0.4 -17.5153
v -0.0223314 -0.4 -17.5989
v 0 0.036 -16.544
v -1.6216 0.036 -16.4643
v -3.45528 -0.4 -17.2564
v -3.43359 -0.4 -17.2618
v -3.22757 0.036 -16.2261
v -5.13006 -0.4 -16.8346
v -5.10901 -0.4 -16.8421
v -4.80247 0.036 -15.8316
v -8.31576 -0.4 -15.5103
v -8.29658 -0.4 -15.5218
v -6.75544 -0.4 -16.2507
v -6.73523 -0.4 -16.2603
v 11.1653 -0.4 -13.605
v 11.1819 -0.4 -13.59
v 9.77804 -0.4 -14.6339
v 9.79599 -0.4 -14.6205
v 9.19135 0.036 -13.7558
v 7.79879 0.036 -14.5905
v 6.33111 0.036 -15.2847
v -6.33111 0.036 -15.2847
v -7.79879 0.036 -14.5905
v -9.79599 -0.4 -14.6205
v -9.77804 -0.4 -14.6339
v -9.19135 0.036 -13.7558
v -11.1819 -0.4 -13.59
v -11.1653 -0.4 -13.605
v 13.605 -0.4 -11.1653
v 13.6183 -0.4 -11.1474
v 12.4451 -0.4 -12.4451
v 12.4601 -0.4 -12.4285
v 11.6984 0.036 -11.6984
v 10.4954 0.036 -12.7887
v -10.4954 0.036 -12.7887
v -12.4601 -0.4 -12.4285
v -12.4451 -0.4 -12.4451
v -11.6984 0.036 -11.6984
v -13.6183 -0.4 -11.1474
v -13.605 -0.4 -11.1653
v 14.6339 -0.4 -9.77804
v 14.6454 -0.4 -9.75886
v 13.7558 0.036 -9.19135
v 12.7887 0.036 -10.4954
v -12.7887 0.036 -10.4954
v -14.6454 -0.4 -9.75886
v -14.6339 -0.4 -9.77804
v -13.7558 0.036 -9.19135
v 15.5218 -0.4 -8.29658
v 15.5314 -0.4 -8.27637
v 16.2603 -0.4 -6.73523
v 16.2678 -0.4 -6.71418
v 14.5905 0.036 -7.79879
v -14.5905 0.036 -7.79879
v -16.2678 -0.4 -6.71418
v -16.2603 -0.4 -6.73523
v -15.5314 -0.4 -8.27637
v -15.5218 -0.4 -8.29658
v 16.8421 -0.4 -5.10901
v 16.8476 -0.4 -5.08732
v 15.8316 0.036 -4.80247
v 15.2847 0.036 -6.33111
v -15.2847 0.036 -6.33111
v -16.8476 -0.4 -5.08732
v -16.8421 -0.4 -5.10901
v -15.8316 0.036 -4.80247
v 17.2618 -0.4 -3.43359
v 17.2651 -0.4 -3.41147
v 16.2261 0.036 -3.22757
v -17.2651 -0.4 -3.41147
v -17.2618 -0.4 -3.43359
v -16.2261 0.036 -3.22757
v 17.5153 -0.4 -1.7251
v 17.5163 -0.4 -1.70277
v 16.4643 0.036 -1.6216
v -17.5163 -0.4 -1.70277
v -17.5153 -0.4 -1.7251
v -16.4643 0.036 -1.6216
v 17.5153 -0.4 1.7251
v 17.512 -0.4 1.74722
v 17.6 -0.4 -0
v 17.5989 -0.4 0.0223314
v 16.544 0.036 -0
v 16.4643 0.036 1.6216
v -17.512 -0.4 1.74722
v -17.6 -0.4 -0
v -17.5153 -0.4 1.7251
v -17.5989 -0.4 0.0223314
v -16.544 0.036 -0
v -16.4643 0.036 1.6216
v 17.2618 -0.4 3.43359
v 17.2564 -0.4 3.45528
v 16.2261 0.036 3.22757
v -12.8612 0.036 3.9014
v -13.9037 -0.6 3.60693
v -13.3617 -0.6 4.05322
v -14.7698 0.036 2.32986
v -14.1751 0.036 2.8196
v -17.2562 -0.4 3.45584
v -17.2618 -0.4 3.43359
v 16.8421 -0.4 5.10901
v 16.8346 -0.4 5.13006
v 15.8316 0.036 4.80247
v 15.2847 0.036 6.33111
v -10.6717 0.036 5.70417
v -10.6164 0.036 5.7497
v -12.1647 -0.6 5.03878
v -11.087 -0.6 5.92613
v -11.7091 0.036 4.85005
v -15.836 -0.6 6.32114
v -16.8382 -0.4 5.11998
v -16.817 -0.4 5.17934
v -16.806 -0.4 5.21002
v -16.8421 -0.4 5.10901
v 16.2603 -0.4 6.73523
v 16.2507 -0.4 6.75544
v 15.5218 -0.4 8.29658
v 15.5103 -0.4 8.31576
v 14.5905 0.036 7.79879
v -10.0934 -0.6 6.74421
v -9.75026 -0.6 7.02677
v -9.40671 -0.6 7.71988
v -8.88955 -0.6 8.76321
v -10.116 0.036 6.7593
v -9.57245 0.036 7.85591
v -14.9961 -0.6 8.0156
v -14.9881 0.4 8.77144
v -15.0812 0.4 8.58354
v -15.1138 0.4 8.51793
v -15.2057 0.4 8.33248
v -15.3634 0.4 8.01435
v -15.6213 0.4 8.08628
v -16.1325 -0.4 7.00544
v -16.2603 -0.4 6.73523
v 14.6339 -0.4 9.77804
v 14.6205 -0.4 9.79599
v 13.7558 0.036 9.19135
v 12.7887 0.036 10.4954
v -9.00358 0.036 9.00358
v -8.88391 0.036 9.24501
v -9.62575 0.036 9.62575
v -14.2498 -0.6 9.52138
v -13.5182 -0.6 10.9973
v -14.6339 0.0955631 9.77804
v -13.9235 -0.4 10.7358
v -14.8801 0.4 8.98931
v -15.0189 0.4 9.13559
v 13.605 -0.4 11.1653
v 13.59 -0.4 11.1819
v 12.4451 -0.4 12.4451
v 12.4285 -0.4 12.4601
v 11.6984 0.036 11.6984
v 10.4954 0.036 12.7887
v -13.6369 -0.6 11.1223
v -13.5938 -0.6 11.1776
v 11.1653 -0.4 13.605
v 11.1474 -0.4 13.6183
v 9.77804 -0.4 14.6339
v 9.75886 -0.4 14.6454
v 9.19135 0.036 13.7558
v 7.79879 0.036 14.5905
v 6.33111 0.036 15.2847
v 8.29658 -0.4 15.5218
v 8.27637 -0.4 15.5314
v 6.73523 -0.4 16.2603
v 6.71418 -0.4 16.2678
v 4.80247 0.036 15.8316
v 5.10257 -0.4 16.8438
v 5.03176 -0.4 16.8615
v 5.10901 -0.4 16.8421
v 4.8 0.2 15.8322
v 4.8 0.2 16.9196
v -14.4582 -0.6 4.38585
v -15.2742 0.036 3.03822
v -16.0134 0.036 4.07662
v -16.2261 0.036 3.22757
v -15.738 -0.6 6.5189
v -15.5137 0.4 7.71108
v -12.3225 0.036 11.0098
v -12.4614 0.4 11.3585
v -12.3249 0.4 11.2885
v -12.2198 0.4 11.2345
v -12.4859 0.4 11.3711
v -12.9447 0.4 11.6065
v -13.1224 0.4 11.6978
v -12.9833 0.4 11.6264
v -12.1509 0.4 11.1991
v -12.2085 0.4 11.2287
v -13.4995 -0.4 11.2817
v 6.73523 -0.6 -16.2603
v 8.29658 -0.6 -15.5218
v 5.10901 -0.6 -16.8421
v 3.43359 -0.6 -17.2618
v 1.7251 -0.6 -17.5153
v -1.92895e-010 0.13 -17.6
v -7.50522e-011 0.13 -16.544
v -1.7251 -0.6 -17.5153
v -3.85791e-011 -0.4 -17.6
v 0 -0.6 -17.6
v -3.43359 -0.6 -17.2618
v -5.10901 -0.6 -16.8421
v -8.29658 -0.6 -15.5218
v -6.73523 -0.6 -16.2603
v 11.1653 -0.6 -13.605
v 9.77804 -0.6 -14.6339
v -9.77804 -0.6 -14.6339
v -11.1653 -0.6 -13.605
v 13.605 -0.6 -11.1653
v 12.4451 -0.6 -12.4451
v -12.4451 -0.6 -12.4451
v -13.605 -0.6 -11.1653
v 14.6339 -0.6 -9.77804
v -14.6339 -0.6 -9.77804
v 15.5218 -0.6 -8.29658
v 16.2603 -0.6 -6.73523
v -16.2603 -0.6 -6.73523
v -15.5218 -0.6 -8.29658
v 16.8421 -0.6 -5.10901
v -16.8421 -0.6 -5.10901
v 17.2618 -0.6 -3.43359
v -17.2618 -0.6 -3.43359
v 17.5153 -0.6 -1.7251
v -17.5153 -0.6 -1.7251
v 17.5153 -0.6 1.7251
v 17.6 -0.6 -0
v 0 -0.6 -0
v 0 0.036 -0
v -17.6 -0.6 -0
v -17.5153 -0.6 1.7251
v 17.2618 -0.6 3.43359
v -17.2618 -0.6 3.43359
v 16.8421 -0.6 5.10901
v -16.8421 -0.6 5.10901
v 16.2603 -0.6 6.73523
v 15.5218 -0.6 8.29658
v -15.5218 0.4 8.29658
v -15.5218 -0.4 8.29658
v -16.1126 -0.4 7.0475
v -16.2603 -0.6 6.73523
v -15.5218 -0.6 8.29658
v 14.6339 -0.6 9.77804
v -14.6339 -0.4 9.77804
v -14.6339 -0.6 9.77804
v -14.8115 -0.4 9.48175
v 13.605 -0.6 11.1653
v 12.4451 -0.6 12.4451
v -10.4954 0.4 12.7887
v -10.4954 0.036 12.7887
v -12.2354 0.220723 11.1059
v -12.6771 -0.4 12.1891
v -12.4451 -0.4 12.4451
v -12.4451 -0.6 12.4451
v -11.6984 0.4 11.6984
v -11.6984 0.036 11.6984
v -12.4451 0.4 12.4451
v -13.2619 0.10418 11.5439
v 11.1653 -0.6 13.605
v 9.77804 -0.6 14.6339
v -6.33111 0.4 15.2847
v -6.33111 0.036 15.2847
v -8.59287 -0.4 15.3442
v -7.79879 0.4 14.5905
v -7.79879 0.036 14.5905
v -10.0555 -0.4 14.4281
v -9.77804 -0.4 14.6339
v -9.77804 -0.6 14.6339
v -9.77804 0.4 14.6339
v -9.19135 0.4 13.7558
v -9.19135 0.036 13.7558
v -11.4213 -0.4 13.373
v -11.1653 -0.4 13.605
v -11.1653 -0.6 13.605
v -11.1653 0.4 13.605
v 8.29658 -0.6 15.5218
v 6.73523 -0.6 16.2603
v 5.10901 -0.6 16.8421
v 3.77519 -0.4 17.1763
v 3.43359 -0.4 17.2618
v 3.43359 -0.6 17.2618
v 3.00647 -0.4 17.3252
v 3.43359 0.2 17.2618
v 3.22757 0.2 16.2261
v 3.22757 0.036 16.2261
v 1.7251 -0.4 17.5153
v 1.7251 -0.6 17.5153
v 1.29383 -0.4 17.5364
v 1.7251 0.2 17.5153
v 1.6216 0.2 16.4643
v 1.6216 0.036 16.4643
v -1.7251 -0.4 17.5153
v -1.7251 -0.6 17.5153
v -2.15222 -0.4 17.4519
v 0 -0.6 17.6
v 0 -0.4 17.6
v -0.431275 -0.4 17.5788
v 0 0.2 17.6
v -1.7251 0.2 17.5153
v 0 0.2 16.544
v 0 0.036 16.544
v -1.6216 0.2 16.4643
v -1.6216 0.036 16.4643
v -3.77519 -0.4 17.1763
v -3.43359 -0.4 17.2618
v -3.43359 -0.6 17.2618
v -3.43359 0.2 17.2618
v -3.22757 0.2 16.2261
v -3.22757 0.036 16.2261
v -5.10257 -0.4 16.8438
v -5.10901 -0.4 16.8421
v -5.43425 -0.4 16.7258
v -5.03176 -0.4 16.8615
v -5.10901 -0.6 16.8421
v -5.10901 0.4 16.8421
v -4.80237 0.4 15.8316
v -5.07682 0.4 16.8502
v -4.80247 0.4 15.8316
v -4.8 0.4 15.8322
v -4.8 0.4 16.9196
v -4.8 0.2 16.9196
v -4.8 0.2 15.8322
v -4.80247 0.036 15.8316
v -8.29658 -0.6 15.5218
v -8.29658 -0.4 15.5218
v -6.73523 -0.6 16.2603
v -6.73523 -0.4 16.2603
v -7.0475 -0.4 16.1126
v -8.29658 0.4 15.5218
v -6.73523 0.4 16.2603
vn 0.195089 -2.79037e-005 -0.980786
vn 0.114296 0 -0.993447
vn 0.0817195 0 -0.996655
vn 0.195091 0 -0.980785
vn 0.114296 0 -0.993447
vn 0.195089 -2.79037e-005 -0.980786
vn 0.0817195 0 -0.996655
vn 0.0163809 0 -0.999866
vn -0.0163809 0 -0.999866
vn 0.114296 0 -0.993447
vn 0.0163809 0 -0.999866
vn 0.0817195 0 -0.996655
vn -0.0817195 0 -0.996655
vn -0.114296 0 -0.993447
vn -0.0163809 0 -0.999866
vn 0.0163809 0 -0.999866
vn -0.0817195 0 -0.996655
vn -0.0163809 0 -0.999866
vn -0.179001 0 -0.983849
vn -0.211125 -3.71999e-005 -0.977459
vn -0.114296 0 -0.993447
vn -0.0817195 0 -0.996655
vn -0.179001 0 -0.983849
vn -0.114296 0 -0.993447
vn 0 1 -0
vn 0 1 -0
vn 0 1 -0
vn 0 1 -0
vn 0 1 -0
vn 0 1 -0
vn 0 1 -0
vn 0 1 -0
vn 0 1 -0
vn 0 1 -0
vn 0 1 -0
vn 0 1 -0
vn 0 1 -0
vn 0 1 -0
vn 0 1 -0
vn 0 1 -0
vn 0 1 -0
vn 0 1 -0
vn 0 1 -0
vn 0 1 -0
vn 0 1 -0
vn 0 1 -0
vn 0 1 -0
vn 0 1 -0
vn 0 1 -0
vn 0 1 -0
vn 0 1 -0
vn 0 1 -0
vn 0 1 -0
vn 0 1 -0
vn 0 1 -0
vn 0 1 -0
vn 0 1 -0
vn 0 1 -0
vn 0 1 -0
vn 0 1 -0
vn 0 1 -0
vn 0 1 -0
vn 0 1 -0
vn 0 1 -0
vn 0 1 -0
vn 0 1 -0
vn 0 1 -0
vn 0 1 -0
vn 0 1 -0
vn 0 1 -0
vn 0 1 -0
vn 0 1 -0
vn 0 1 -0
vn 0 1 -0
vn 0 1 -0
vn 0 1 -0
vn 0 1 -0
vn 0 1 -0
vn 0 1 -0
vn 0 1 -0
vn 0 1 -0
vn 0 1 -0
vn 0 1 -0
vn 0 1 -0
vn 0 1 -0
vn 0 1 -0
vn 0 1 -0
vn 0 1 -0
vn 0 1 -0
vn 0 1 -0
vn 0 1 -0
vn 0 1 -0
vn 0 1 -0
vn 0 1 -0
vn 0 1 -0
vn 0 1 -0
vn 0 1 -0
vn 0 1 -0
vn 0 1 -0
vn 0 1 -0
vn 0 1 -0
vn 0 1 -0
vn 0 1 -0
vn 0 1 -0
vn 0 1 -0
vn 0 1 -0
vn 0 1 -0
vn 0 1 -0
vn 0 1 -0
vn 0 1 -0
vn 0 1 -0
vn 0 1 -0
vn 0 1 -0
vn 0 1 -0
vn 0 1 -0
vn 0 1 -0
vn 0 1 -0
vn 0 1 -0
vn 0 1 -0
vn 0 1 -0
vn 0 1 -0
vn 0 1 -0
vn 0 1 -0
vn 0 1 -0
vn 0 1 -0
vn 0 1 -0
vn 0 1 -0
vn 0 1 -0
vn 0 1 -0
vn 0 1 -0
vn 0 1 -0
vn 0 1 -0
vn 0 1 -0
vn 0 1 -0
vn 0 1 -0
vn 0 1 -0
vn 0 1 -0
vn 0 1 -0
vn 0 1 -0
vn 0 1 -0
vn 0 1 -0
vn 0 1 -0
vn 0 1 -0
vn 0 1 -0
vn 0 1 -0
vn 0 1 -0
vn 0 1 -0
vn 0 1 -0
vn 0 1 -0
vn 0 1 -0
vn 0 1 -0
vn 0 1 -0
vn 0 1 -0
vn 0 1 -0
vn 0 1 -0
vn 0 1 -0
vn 0 1 -0
vn 0 1 -0
vn 0 1 -0
vn 0 -1 -0
vn 0 -1 -0
vn 0 -1 -0
vn 0 -1 -0
vn 0 -1 -0
vn 0 -1 -0
vn 0 -1 -0
vn 0 -1 -0
vn 0 -1 -0
vn 0 -1 -0
vn 0 -1 -0
vn 0 -1 -0
vn 0 -1 -0
vn 0 -1 -0
vn 0 -1 -0
vn 0 -1 -0
vn 0 -1 -0
vn 0 -1 -0
vn 0 -1 -0
vn 0 -1 -0
vn 0 -1 -0
vn 0 -1 -0
vn 0 -1 -0
vn 0 -1 -0
vn 0 -1 -0
vn 0 -1 -0
vn 0 -1 -0
vn 0 -1 -0
vn 0 -1 -0
vn 0 -1 -0
vn 0 -1 -0
vn 0 -1 -0
vn 0 -1 -0
vn 0 -1 -0
vn 0 -1 -0
vn 0 -1 -0
vn 0 -1 -0
vn 0 -1 -0
vn 0 -1 -0
vn 0 -1 -0
vn 0 -1 -0
vn 0 -1 -0
vn 0 -1 -0
vn 0 -1 -0
vn 0 -1 -0
vn 0 -1 -0
vn 0 -1 -0
vn 0 -1 -0
vn 0 -1 -0
vn 0 -1 -0
vn 0 -1 -0
vn 0 -1 -0
vn 0 -1 -0
vn 0 -1 -0
vn 0 -1 -0
vn 0 -1 -0
vn 0 -1 -0
vn 0 -1 -0
vn 0 -1 -0
vn 0 -1 -0
vn 0 -1 -0
vn 0 -1 -0
vn 0 -1 -0
vn 0 -1 -0
vn 0 -1 -0
vn 0 -1 -0
vn 0 -1 -0
vn 0 -1 -0
vn 0 -1 -0
vn 0 -1 -0
vn 0 -1 -0
vn 0 -1 -0
vn 0 -1 -0
vn 0 -1 -0
vn 0 -1 -0
vn 0 -1 -0
vn 0 -1 -0
vn 0 -1 -0
vn 0 -1 -0
vn 0 -1 -0
vn 0 -1 -0
vn 0 -1 -0
vn 0 -1 -0
vn 0 -1 -0
vn -0.179001 0 -0.983849
vn -0.242991 -5.57401e-005 -0.970029
vn -0.211125 -3.71999e-005 -0.977459
vn 0.608001 -3.63269e-005 -0.793936
vn 0.195091 0 -0.980785
vn 0.195089 -2.79037e-005 -0.980786
vn 0.20665 -4.47436e-005 -0.978415
vn 0.608001 -3.63269e-005 -0.793936
vn 0.195089 -2.79037e-005 -0.980786
vn 0 1 -0
vn 0 1 -0
vn 0 1 -0
vn 0 1 -0
vn 0 1 -0
vn 0 1 -0
vn 0 1 -0
vn 0 1 -0
vn 0 1 -0
vn 0 1 -0
vn 0 1 -0
vn 0 1 -0
vn 0 1 -0
vn 0 1 -0
vn 0 1 -0
vn 0 1 -0
vn 0 1 -0
vn 0 1 -0
vn 0 1 -0
vn 0 1 -0
vn 0 1 -0
vn 0 1 -0
vn 0 1 -0
vn 0 1 -0
vn 0 1 -0
vn 0 1 -0
vn 0 1 -0
vn 0 1 -0
vn 0 1 -0
vn 0 1 -0
vn 0 1 -0
vn 0 1 -0
vn 0 1 -0
vn 0 1 -0
vn 0 1 -0
vn 0 1 -0
vn 0.608001 -3.63269e-005 -0.793936
vn 1 0 -0
vn 1 0 -0
vn 0.789107 0 -0.614256
vn 1 0 -0
vn 0.608001 -3.63269e-005 -0.793936
vn 0.621634 0 -0.783307
vn 0.569101 0 -0.822268
vn 0.541884 0 -0.840453
vn 0.541884 0 -0.840453
vn 0.48579 0 -0.874076
vn 0.456911 0 -0.889512
vn 0.569101 0 -0.822268
vn 0.48579 0 -0.874076
vn 0.541884 0 -0.840453
vn 0.456911 0 -0.889512
vn 0.397763 0 -0.917488
vn 0.367492 0 -0.930027
vn 0.48579 0 -0.874076
vn 0.397763 0 -0.917488
vn 0.456911 0 -0.889512
vn 0.367492 0 -0.930027
vn 0.227548 0 -0.973767
vn 0.20665 -4.47436e-005 -0.978415
vn 0.397763 0 -0.917488
vn 0.227548 0 -0.973767
vn 0.367492 0 -0.930027
vn -0.243175 0 0.969982
vn -0.243448 5.33819e-005 0.969914
vn -0.242952 -3.77146e-005 0.970038
vn 0.227548 0 -0.973767
vn 0.162926 -2.21684e-005 -0.986638
vn 0.20665 -4.47436e-005 -0.978415
vn 0.162926 -2.21684e-005 -0.986638
vn 0.608001 -3.63269e-005 -0.793936
vn 0.20665 -4.47436e-005 -0.978415
vn 0.162926 -2.21684e-005 -0.986638
vn 0.789107 0 -0.614256
vn 0.608001 -3.63269e-005 -0.793936
vn 0 1 -0
vn 0 1 -0
vn 0 1 -0
vn 0 1 -0
vn 0 1 -0
vn 0 1 -0
vn 0 1 -0
vn 0 1 -0
vn 0 1 -0
vn 0 1 -0
vn 0 1 -0
vn 0 1 -0
vn 0 1 -0
vn 0 1 -0
vn 0 1 -0
vn 0 1 -0
vn 0 1 -0
vn 0 1 -0
vn 0 1 -0
vn 0 1 -0
vn 0 1 -0
vn 0 1 -0
vn 0 1 -0
vn 0 1 -0
vn 0 1 -0
vn 0 1 -0
vn 0 1 -0
vn 0 1 -0
vn 0 1 -0
vn 0 1 -0
vn 0 1 -0
vn 0 1 -0
vn 0 1 -0
vn 0.646951 0 -0.762532
vn 0.569101 0 -0.822268
vn 0.621634 0 -0.783307
vn 0 1 -0
vn 0 1 -0
vn 0 1 -0
vn 0.707104 -1.5643e-006 -0.707109
vn 0.646951 0 -0.762532
vn 0.621634 0 -0.783307
vn 0 1 -0
vn 0 1 -0
vn 0 1 -0
vn 0.718598 -4.99796e-005 -0.695426
vn 0.646951 0 -0.762532
vn 0.707104 -1.5643e-006 -0.707109
vn 0 1 -0
vn 0 1 -0
vn 0 1 -0
vn 0 1 -0
vn 0 1 -0
vn 0 1 -0
vn 0 1 -0
vn 0 1 -0
vn 0 1 -0
vn 0 1 -0
vn 0 1 -0
vn 0 1 -0
vn 0 1 -0
vn 0 1 -0
vn 0 1 -0
vn 0 1 -0
vn 0 1 -0
vn 0 1 -0
vn 0 1 -0
vn 0 1 -0
vn 0 1 -0
vn 0 -1 -0
vn 0 -1 -0
vn 0 -1 -0
vn 0 -1 -0
vn 0 -1 -0
vn 0 -1 -0
vn 0 -1 -0
vn 0 -1 -0
vn 0 -1 -0
vn 0 -1 -0
vn 0 -1 -0
vn 0 -1 -0
vn 0 -1 -0
vn 0 -1 -0
vn 0 -1 -0
vn 0 -1 -0
vn 0 -1 -0
vn 0 -1 -0
vn 0 -1 -0
vn 0 -1 -0
vn 0 -1 -0
vn 0 -1 -0
vn 0 -1 -0
vn 0 -1 -0
vn 0 -1 -0
vn 0 -1 -0
vn 0 -1 -0
vn 0 -1 -0
vn 0 -1 -0
vn 0 -1 -0
vn 0 -1 -0
vn 0 -1 -0
vn 0 -1 -0
vn 0 -1 -0
vn 0 -1 -0
vn 0 -1 -0
vn 0 -1 -0
vn 0 -1 -0
vn 0 -1 -0
vn 0 -1 -0
vn 0 -1 -0
vn 0 -1 -0
vn 0 -1 -0
vn 0 -1 -0
vn 0 -1 -0
vn 0 -1 -0
vn 0 -1 -0
vn 0 -1 -0
vn 0 -1 -0
vn 0 -1 -0
vn 0 -1 -0
vn 0 -1 -0
vn 0 -1 -0
vn 0 -1 -0
vn 0 -1 -0
vn 0 -1 -0
vn 0 -1 -0
vn 0 -1 -0
vn 0 -1 -0
vn 0 -1 -0
vn 0 -1 -0
vn 0 -1 -0
vn 0 -1 -0
vn 0 -1 -0
vn 0 -1 -0
vn 0 -1 -0
vn 0 -1 -0
vn 0 -1 -0
vn 0 -1 -0
vn 0 -1 -0
vn 0 -1 -0
vn 0 -1 -0
vn 0 -1 -0
vn 0 -1 -0
vn 0 -1 -0
vn 0 -1 -0
vn 0 -1 -0
vn 0 -1 -0
vn 0 -1 -0
vn 0 -1 -0
vn 0 -1 -0
vn 0 -1 -0
vn 0 -1 -0
vn 0 -1 -0
vn 0 -1 -0
vn 0 -1 -0
vn 0 -1 -0
vn 0 -1 -0
vn 0 -1 -0
vn 0 -1 -0
vn 1 0 6.32854e-005
vn 0.998794 6.84445e-006 0.0490996
vn 1 0.000126286 3.16435e-005
vn 0.998866 0.000161334 -0.0476163
vn 1 0 6.32854e-005
vn 1 0.000126286 3.16435e-005
vn 0.99529 9.93413e-005 -0.0969428
vn 0.998866 0.000161334 -0.0476163
vn 1 0.000126286 3.16435e-005
vn 0.995395 0 -0.0958625
vn 0.998866 0.000161334 -0.0476163
vn 0.99529 9.93413e-005 -0.0969428
vn 0.995142 0 0.0984514
vn 0.989129 3.21801e-005 0.147051
vn 0.995163 2.93041e-005 0.0982371
vn 0.998794 6.84445e-006 0.0490996
vn 0.995142 0 0.0984514
vn 0.995163 2.93041e-005 0.0982371
vn 1 0.000126286 3.16435e-005
vn 0.998794 6.84445e-006 0.0490996
vn 0.995163 2.93041e-005 0.0982371
vn -4.84872e-008 -4.20183e-005 1
vn -0.0980326 -2.11114e-005 0.995183
vn -0.0490523 1.40232e-005 0.998796
vn -4.84872e-008 -4.20183e-005 1
vn -0.0490523 1.40232e-005 0.998796
vn -9.51096e-008 0 1
vn -9.51096e-008 0 1
vn -0.0490523 1.40232e-005 0.998796
vn -4.84872e-008 0.000126056 1
vn 0.0490005 4.19345e-005 0.998799
vn -4.84872e-008 -4.20183e-005 1
vn -9.51096e-008 0 1
vn 0.0490005 4.19345e-005 0.998799
vn -9.51096e-008 0 1
vn -4.84872e-008 0.000126056 1
vn 0.0979748 6.5076e-005 0.995189
vn 0.0490005 4.19345e-005 0.998799
vn -4.84872e-008 0.000126056 1
vn 0.0979748 -2.16934e-005 0.995189
vn -4.84872e-008 -4.20183e-005 1
vn 0.0490005 4.19345e-005 0.998799
vn 0.0979268 0 0.995194
vn 0.0979748 -2.16934e-005 0.995189
vn 0.0490005 4.19345e-005 0.998799
vn 0.0979268 0 0.995194
vn 0.0490005 4.19345e-005 0.998799
vn 0.0979748 6.5076e-005 0.995189
vn 0.146782 -1.30477e-005 0.989169
vn 0.0979748 -2.16934e-005 0.995189
vn 0.0979268 0 0.995194
vn 0.146782 -1.30477e-005 0.989169
vn 0.0979268 0 0.995194
vn 0.0979748 6.5076e-005 0.995189
vn 0.195083 -0.00011647 0.980787
vn 0.146782 -1.30477e-005 0.989169
vn 0.0979748 6.5076e-005 0.995189
vn 0.195068 2.96227e-005 0.98079
vn 0.0979748 -2.16934e-005 0.995189
vn 0.146782 -1.30477e-005 0.989169
vn 0.195048 0 0.980794
vn 0.195068 2.96227e-005 0.98079
vn 0.146782 -1.30477e-005 0.989169
vn 0.195048 0 0.980794
vn 0.146782 -1.30477e-005 0.989169
vn 0.195083 -0.00011647 0.980787
vn 0.989133 -2.90455e-005 -0.147023
vn 0.995395 0 -0.0958625
vn 0.99529 9.93413e-005 -0.0969428
vn 0.980744 -0.000103437 -0.1953
vn 0.989133 -2.90455e-005 -0.147023
vn 0.99529 9.93413e-005 -0.0969428
vn 0.980707 0 -0.195481
vn 0.989133 -2.90455e-005 -0.147023
vn 0.980744 -0.000103437 -0.1953
vn 0.969794 -0.000108705 -0.243927
vn 0.980707 0 -0.195481
vn 0.980744 -0.000103437 -0.1953
vn 0.95673 -4.48712e-005 -0.290976
vn 0.969794 -0.000108705 -0.243927
vn 0.980744 -0.000103437 -0.1953
vn 0.956517 0 -0.291677
vn 0.969794 -0.000108705 -0.243927
vn 0.95673 -4.48712e-005 -0.290976
vn 0.941703 4.8947e-005 -0.336447
vn 0.956517 0 -0.291677
vn 0.95673 -4.48712e-005 -0.290976
vn 0.924011 -9.02595e-006 -0.382366
vn 0.941703 4.8947e-005 -0.336447
vn 0.95673 -4.48712e-005 -0.290976
vn 0.924139 0 -0.382057
vn 0.941703 4.8947e-005 -0.336447
vn 0.924011 -9.02595e-006 -0.382366
vn 0.903751 -6.09669e-005 -0.428058
vn 0.924139 0 -0.382057
vn 0.924011 -9.02595e-006 -0.382366
vn 0.88173 -5.0962e-005 -0.471754
vn 0.903751 -6.09669e-005 -0.428058
vn 0.924011 -9.02595e-006 -0.382366
vn 0.881538 0 -0.472113
vn 0.903751 -6.09669e-005 -0.428058
vn 0.88173 -5.0962e-005 -0.471754
vn 0.857711 -6.90203e-006 -0.514132
vn 0.881538 0 -0.472113
vn 0.88173 -5.0962e-005 -0.471754
vn 0.831448 -2.98871e-005 -0.555603
vn 0.857711 -6.90203e-006 -0.514132
vn 0.88173 -5.0962e-005 -0.471754
vn 0.831424 0 -0.555639
vn 0.857711 -6.90203e-006 -0.514132
vn 0.831448 -2.98871e-005 -0.555603
vn 0.803024 -3.28995e-005 -0.595947
vn 0.831424 0 -0.555639
vn 0.831448 -2.98871e-005 -0.555603
vn 0.772868 1.62382e-005 -0.634567
vn 0.803024 -3.28995e-005 -0.595947
vn 0.831448 -2.98871e-005 -0.555603
vn 0.772724 0 -0.634742
vn 0.803024 -3.28995e-005 -0.595947
vn 0.772868 1.62382e-005 -0.634567
vn 0.741286 5.45245e-005 -0.671189
vn 0.772724 0 -0.634742
vn 0.772868 1.62382e-005 -0.634567
vn 0.707369 -9.50166e-007 -0.706845
vn 0.741286 5.45245e-005 -0.671189
vn 0.772868 1.62382e-005 -0.634567
vn 0.70763 0 -0.706583
vn 0.741286 5.45245e-005 -0.671189
vn 0.707369 -9.50166e-007 -0.706845
vn 0.671181 -5.57899e-005 -0.741293
vn 0.70763 0 -0.706583
vn 0.707369 -9.50166e-007 -0.706845
vn 0.634096 4.55217e-005 -0.773254
vn 0.671181 -5.57899e-005 -0.741293
vn 0.707369 -9.50166e-007 -0.706845
vn 0.6338 0 -0.773497
vn 0.671181 -5.57899e-005 -0.741293
vn 0.634096 4.55217e-005 -0.773254
vn 0.596537 0.000116414 -0.802586
vn 0.6338 0 -0.773497
vn 0.634096 4.55217e-005 -0.773254
vn 0.556214 9.32066e-005 -0.831039
vn 0.596537 0.000116414 -0.802586
vn 0.634096 4.55217e-005 -0.773254
vn 0.556861 0 -0.830606
vn 0.596537 0.000116414 -0.802586
vn 0.556214 9.32066e-005 -0.831039
vn 0.514139 7.70727e-006 -0.857707
vn 0.556861 0 -0.830606
vn 0.556214 9.32066e-005 -0.831039
vn 0.471434 5.15678e-005 -0.881901
vn 0.514139 7.70727e-006 -0.857707
vn 0.556214 9.32066e-005 -0.831039
vn 0.471475 0 -0.881879
vn 0.514139 7.70727e-006 -0.857707
vn 0.471434 5.15678e-005 -0.881901
vn 0.428058 6.09669e-005 -0.903751
vn 0.471475 0 -0.881879
vn 0.471434 5.15678e-005 -0.881901
vn 0.383056 9.02599e-006 -0.923725
vn 0.428058 6.09669e-005 -0.903751
vn 0.471434 5.15678e-005 -0.881901
vn 0.383438 0 -0.923567
vn 0.428058 6.09669e-005 -0.903751
vn 0.383056 9.02599e-006 -0.923725
vn 0.336447 -4.8947e-005 -0.941703
vn 0.383438 0 -0.923567
vn 0.383056 9.02599e-006 -0.923725
vn 0.289964 -7.54506e-005 -0.957038
vn 0.336447 -4.8947e-005 -0.941703
vn 0.383056 9.02599e-006 -0.923725
vn 0.289654 0 -0.957131
vn 0.336447 -4.8947e-005 -0.941703
vn 0.289964 -7.54506e-005 -0.957038
vn 0.242555 -5.15344e-005 -0.970138
vn 0.289654 0 -0.957131
vn 0.289964 -7.54506e-005 -0.957038
vn 0.194776 -1.45329e-005 -0.980848
vn 0.242555 -5.15344e-005 -0.970138
vn 0.289964 -7.54506e-005 -0.957038
vn 0.194434 0 -0.980916
vn 0.242555 -5.15344e-005 -0.970138
vn 0.194776 -1.45329e-005 -0.980848
vn 0.147051 3.21801e-005 -0.989129
vn 0.194434 0 -0.980916
vn 0.194776 -1.45329e-005 -0.980848
vn 0.0982371 2.93041e-005 -0.995163
vn 0.147051 3.21801e-005 -0.989129
vn 0.194776 -1.45329e-005 -0.980848
vn 0.0984514 0 -0.995142
vn 0.147051 3.21801e-005 -0.989129
vn 0.0982371 2.93041e-005 -0.995163
vn 0.0491453 3.9629e-006 -0.998792
vn 0.0984514 0 -0.995142
vn 0.0982371 2.93041e-005 -0.995163
vn 0 1.02791e-005 -1
vn 0.0491453 3.9629e-006 -0.998792
vn 0.0982371 2.93041e-005 -0.995163
vn 0 0 -1
vn 0.0491453 3.9629e-006 -0.998792
vn 0 1.02791e-005 -1
vn -0.0491453 3.96289e-006 -0.998792
vn 0 0 -1
vn 0 1.02791e-005 -1
vn 0.336447 4.8947e-005 0.941703
vn 0.296281 0 0.955101
vn 0.276512 -0.00014386 0.96101
vn 0.382366 -9.02595e-006 0.924011
vn 0.336447 4.8947e-005 0.941703
vn 0.276512 -0.00014386 0.96101
vn 0.382057 0 0.924139
vn 0.336447 4.8947e-005 0.941703
vn 0.382366 -9.02595e-006 0.924011
vn 0.428058 -6.09669e-005 0.903751
vn 0.382057 0 0.924139
vn 0.382366 -9.02595e-006 0.924011
vn 0.471754 -5.0962e-005 0.88173
vn 0.428058 -6.09669e-005 0.903751
vn 0.382366 -9.02595e-006 0.924011
vn 0.472113 0 0.881538
vn 0.428058 -6.09669e-005 0.903751
vn 0.471754 -5.0962e-005 0.88173
vn 0.514132 -6.90203e-006 0.857711
vn 0.472113 0 0.881538
vn 0.471754 -5.0962e-005 0.88173
vn 0.555603 -2.98871e-005 0.831448
vn 0.514132 -6.90203e-006 0.857711
vn 0.471754 -5.0962e-005 0.88173
vn 0.555639 0 0.831424
vn 0.514132 -6.90203e-006 0.857711
vn 0.555603 -2.98871e-005 0.831448
vn 0.595947 -3.28995e-005 0.803024
vn 0.555639 0 0.831424
vn 0.555603 -2.98871e-005 0.831448
vn 0.634567 1.62382e-005 0.772868
vn 0.595947 -3.28995e-005 0.803024
vn 0.555603 -2.98871e-005 0.831448
vn 0.634742 0 0.772724
vn 0.595947 -3.28995e-005 0.803024
vn 0.634567 1.62382e-005 0.772868
vn 0.671189 5.45245e-005 0.741286
vn 0.634742 0 0.772724
vn 0.634567 1.62382e-005 0.772868
vn 0.706845 -9.50166e-007 0.707369
vn 0.671189 5.45245e-005 0.741286
vn 0.634567 1.62382e-005 0.772868
vn 0.706583 0 0.70763
vn 0.671189 5.45245e-005 0.741286
vn 0.706845 -9.50166e-007 0.707369
vn 0.741293 -5.57899e-005 0.671181
vn 0.706583 0 0.70763
vn 0.706845 -9.50166e-007 0.707369
vn 0.773254 4.55217e-005 0.634096
vn 0.741293 -5.57899e-005 0.671181
vn 0.706845 -9.50166e-007 0.707369
vn 0.773497 0 0.6338
vn 0.741293 -5.57899e-005 0.671181
vn 0.773254 4.55217e-005 0.634096
vn 0.802586 0.000116414 0.596537
vn 0.773497 0 0.6338
vn 0.773254 4.55217e-005 0.634096
vn 0.831039 9.32066e-005 0.556214
vn 0.802586 0.000116414 0.596537
vn 0.773254 4.55217e-005 0.634096
vn 0.830606 0 0.556861
vn 0.802586 0.000116414 0.596537
vn 0.831039 9.32066e-005 0.556214
vn 0.857707 7.70727e-006 0.514139
vn 0.830606 0 0.556861
vn 0.831039 9.32066e-005 0.556214
vn 0.881901 5.15678e-005 0.471434
vn 0.857707 7.70727e-006 0.514139
vn 0.831039 9.32066e-005 0.556214
vn 0.881879 0 0.471475
vn 0.857707 7.70727e-006 0.514139
vn 0.881901 5.15678e-005 0.471434
vn 0.903751 6.09669e-005 0.428058
vn 0.881879 0 0.471475
vn 0.881901 5.15678e-005 0.471434
vn 0.923725 9.02598e-006 0.383056
vn 0.903751 6.09669e-005 0.428058
vn 0.881901 5.15678e-005 0.471434
vn 0.923567 0 0.383438
vn 0.903751 6.09669e-005 0.428058
vn 0.923725 9.02598e-006 0.383056
vn 0.941703 -4.8947e-005 0.336447
vn 0.923567 0 0.383438
vn 0.923725 9.02598e-006 0.383056
vn 0.957038 -7.54506e-005 0.289964
vn 0.941703 -4.8947e-005 0.336447
vn 0.923725 9.02598e-006 0.383056
vn 0.957131 0 0.289654
vn 0.941703 -4.8947e-005 0.336447
vn 0.957038 -7.54506e-005 0.289964
vn 0.970138 -5.15344e-005 0.242555
vn 0.957131 0 0.289654
vn 0.957038 -7.54506e-005 0.289964
vn 0.980848 -1.45329e-005 0.194776
vn 0.970138 -5.15344e-005 0.242555
vn 0.957038 -7.54506e-005 0.289964
vn 0.980916 0 0.194434
vn 0.970138 -5.15344e-005 0.242555
vn 0.980848 -1.45329e-005 0.194776
vn 0.989129 3.21801e-005 0.147051
vn 0.980916 0 0.194434
vn 0.980848 -1.45329e-005 0.194776
vn 0.995163 2.93041e-005 0.0982371
vn 0.989129 3.21801e-005 0.147051
vn 0.980848 -1.45329e-005 0.194776
vn 0.242975 8.54978e-006 0.970033
vn 0.195068 2.96227e-005 0.98079
vn 0.242928 -9.28888e-005 0.970044
vn 0.242928 -9.28888e-005 0.970044
vn 0.195068 2.96227e-005 0.98079
vn 0.195048 0 0.980794
vn 0.242928 -9.28888e-005 0.970044
vn 0.195048 0 0.980794
vn 0.195083 -0.00011647 0.980787
vn 0.242844 -0.000241113 0.970065
vn 0.242975 8.54978e-006 0.970033
vn 0.242928 -9.28888e-005 0.970044
vn 0.276512 -0.00014386 0.96101
vn 0.242928 -9.28888e-005 0.970044
vn 0.195083 -0.00011647 0.980787
vn 0.242844 -0.000241113 0.970065
vn 0.242928 -9.28888e-005 0.970044
vn 0.276512 -0.00014386 0.96101
vn 0.248833 -0.00021735 0.968546
vn 0.242844 -0.000241113 0.970065
vn 0.276512 -0.00014386 0.96101
vn 0.296281 0 0.955101
vn 0.248833 -0.00021735 0.968546
vn 0.276512 -0.00014386 0.96101
vn -0.146783 1.40914e-005 0.989169
vn -0.195011 0 0.980801
vn -0.195065 -5.53359e-005 0.98079
vn -0.146783 1.40914e-005 0.989169
vn -0.195065 -5.53359e-005 0.98079
vn -0.0980326 6.33343e-005 0.995183
vn -0.195049 9.24666e-006 0.980793
vn -0.195011 0 0.980801
vn -0.146783 1.40914e-005 0.989169
vn -0.0980326 -2.11114e-005 0.995183
vn -0.195049 9.24666e-006 0.980793
vn -0.146783 1.40914e-005 0.989169
vn -0.0980326 -2.11114e-005 0.995183
vn -0.146783 1.40914e-005 0.989169
vn -0.0980423 0 0.995182
vn -0.0980423 0 0.995182
vn -0.146783 1.40914e-005 0.989169
vn -0.0980326 6.33343e-005 0.995183
vn -0.0490523 1.40232e-005 0.998796
vn -0.0980423 0 0.995182
vn -0.0980326 6.33343e-005 0.995183
vn -0.0490523 1.40232e-005 0.998796
vn -0.0980326 6.33343e-005 0.995183
vn -4.84872e-008 0.000126056 1
vn -0.0980326 -2.11114e-005 0.995183
vn -0.0980423 0 0.995182
vn -0.0490523 1.40232e-005 0.998796
vn -0.0491453 3.96289e-006 -0.998792
vn 0 1.02791e-005 -1
vn -0.0982371 2.93041e-005 -0.995163
vn -0.0984514 0 -0.995142
vn -0.0491453 3.96289e-006 -0.998792
vn -0.0982371 2.93041e-005 -0.995163
vn -0.147051 3.21801e-005 -0.989129
vn -0.0982371 2.93041e-005 -0.995163
vn -0.194776 -1.45329e-005 -0.980848
vn -0.194434 0 -0.980916
vn -0.147051 3.21801e-005 -0.989129
vn -0.194776 -1.45329e-005 -0.980848
vn -0.147051 3.21801e-005 -0.989129
vn -0.0984514 0 -0.995142
vn -0.0982371 2.93041e-005 -0.995163
vn -0.242555 -5.15344e-005 -0.970138
vn -0.194776 -1.45329e-005 -0.980848
vn -0.289964 -7.54506e-005 -0.957038
vn -0.289654 0 -0.957131
vn -0.242555 -5.15344e-005 -0.970138
vn -0.289964 -7.54506e-005 -0.957038
vn -0.242555 -5.15344e-005 -0.970138
vn -0.194434 0 -0.980916
vn -0.194776 -1.45329e-005 -0.980848
vn -0.336447 -4.8947e-005 -0.941703
vn -0.289654 0 -0.957131
vn -0.289964 -7.54506e-005 -0.957038
vn -0.195049 9.24666e-006 0.980793
vn -0.242952 -3.77146e-005 0.970038
vn -0.242928 -9.28888e-005 0.970044
vn -0.195049 9.24666e-006 0.980793
vn -0.242928 -9.28888e-005 0.970044
vn -0.195011 0 0.980801
vn -0.195011 0 0.980801
vn -0.242928 -9.28888e-005 0.970044
vn -0.195065 -5.53359e-005 0.98079
vn -0.242928 -9.28888e-005 0.970044
vn -0.24276 -0.000248403 0.970086
vn -0.276484 -0.000213893 0.961019
vn -0.242928 -9.28888e-005 0.970044
vn -0.276484 -0.000213893 0.961019
vn -0.195065 -5.53359e-005 0.98079
vn -0.242952 -3.77146e-005 0.970038
vn -0.24276 -0.000248403 0.970086
vn -0.242928 -9.28888e-005 0.970044
vn -0.293494 4.09871e-005 0.955961
vn -0.382683 1.72516e-005 0.92388
vn -0.336817 -3.41166e-005 0.94157
vn -0.293494 4.09871e-005 0.955961
vn -0.336817 -3.41166e-005 0.94157
vn -0.296197 0 0.955127
vn -0.296197 0 0.955127
vn -0.336817 -3.41166e-005 0.94157
vn -0.276484 -0.000213893 0.961019
vn -0.242952 -3.77146e-005 0.970038
vn -0.243448 5.33819e-005 0.969914
vn -0.247084 -9.08047e-005 0.968994
vn -0.242952 -3.77146e-005 0.970038
vn -0.247084 -9.08047e-005 0.968994
vn -0.24276 -0.000248403 0.970086
vn -0.24276 -0.000248403 0.970086
vn -0.247084 -9.08047e-005 0.968994
vn -0.276484 -0.000213893 0.961019
vn -0.243448 5.33819e-005 0.969914
vn -0.293494 4.09871e-005 0.955961
vn -0.247084 -9.08047e-005 0.968994
vn -0.293494 4.09871e-005 0.955961
vn -0.296197 0 0.955127
vn -0.247084 -9.08047e-005 0.968994
vn -0.247084 -9.08047e-005 0.968994
vn -0.296197 0 0.955127
vn -0.276484 -0.000213893 0.961019
vn -0.336447 -4.8947e-005 -0.941703
vn -0.289964 -7.54506e-005 -0.957038
vn -0.383056 9.02599e-006 -0.923725
vn -0.383438 0 -0.923567
vn -0.336447 -4.8947e-005 -0.941703
vn -0.383056 9.02599e-006 -0.923725
vn -0.428058 6.09669e-005 -0.903751
vn -0.383438 0 -0.923567
vn -0.383056 9.02599e-006 -0.923725
vn -0.382683 1.72516e-005 0.92388
vn -0.471405 -5.54988e-006 0.881917
vn -0.427572 -3.45095e-007 0.903981
vn -0.382683 1.72516e-005 0.92388
vn -0.427572 -3.45095e-007 0.903981
vn -0.382692 0 0.923876
vn -0.382692 0 0.923876
vn -0.427572 -3.45095e-007 0.903981
vn -0.382683 -6.90065e-005 0.92388
vn -0.336817 -3.41166e-005 0.94157
vn -0.382692 0 0.923876
vn -0.382683 -6.90065e-005 0.92388
vn -0.336817 -3.41166e-005 0.94157
vn -0.382683 -6.90065e-005 0.92388
vn -0.276484 -0.000213893 0.961019
vn -0.382683 1.72516e-005 0.92388
vn -0.382692 0 0.923876
vn -0.336817 -3.41166e-005 0.94157
vn -0.428058 6.09669e-005 -0.903751
vn -0.383056 9.02599e-006 -0.923725
vn -0.471434 5.15678e-005 -0.881901
vn -0.471475 0 -0.881879
vn -0.428058 6.09669e-005 -0.903751
vn -0.471434 5.15678e-005 -0.881901
vn -0.514139 7.70727e-006 -0.857707
vn -0.471475 0 -0.881879
vn -0.471434 5.15678e-005 -0.881901
vn -0.471405 -5.54988e-006 0.881917
vn -0.555571 -9.26149e-006 0.831469
vn -0.514092 1.14315e-005 0.857735
vn -0.471405 -5.54988e-006 0.881917
vn -0.514092 1.14315e-005 0.857735
vn -0.471417 0 0.88191
vn -0.471417 0 0.88191
vn -0.514092 1.14315e-005 0.857735
vn -0.471405 2.21995e-005 0.881917
vn -0.427572 -3.45095e-007 0.903981
vn -0.471417 0 0.88191
vn -0.471405 2.21995e-005 0.881917
vn -0.427572 -3.45095e-007 0.903981
vn -0.471405 2.21995e-005 0.881917
vn -0.382683 -6.90065e-005 0.92388
vn -0.471405 -5.54988e-006 0.881917
vn -0.471417 0 0.88191
vn -0.427572 -3.45095e-007 0.903981
vn -0.514139 7.70727e-006 -0.857707
vn -0.471434 5.15678e-005 -0.881901
vn -0.556214 9.32066e-005 -0.831039
vn -0.556861 0 -0.830606
vn -0.514139 7.70727e-006 -0.857707
vn -0.556214 9.32066e-005 -0.831039
vn -0.514092 1.14315e-005 0.857735
vn -0.555575 0 0.831466
vn -0.555571 3.70352e-005 0.831469
vn -0.514092 1.14315e-005 0.857735
vn -0.555571 3.70352e-005 0.831469
vn -0.471405 2.21995e-005 0.881917
vn -0.555571 -9.26149e-006 0.831469
vn -0.555575 0 0.831466
vn -0.514092 1.14315e-005 0.857735
vn -0.596537 0.000116414 -0.802586
vn -0.556861 0 -0.830606
vn -0.556214 9.32066e-005 -0.831039
vn -0.555571 -9.26149e-006 0.831469
vn -0.634385 2.86048e-007 0.773018
vn -0.59572 7.06196e-006 0.803192
vn -0.555571 -9.26149e-006 0.831469
vn -0.59572 7.06196e-006 0.803192
vn -0.555575 0 0.831466
vn -0.555575 0 0.831466
vn -0.59572 7.06196e-006 0.803192
vn -0.555571 3.70352e-005 0.831469
vn -0.596537 0.000116414 -0.802586
vn -0.556214 9.32066e-005 -0.831039
vn -0.634096 4.55217e-005 -0.773254
vn -0.6338 0 -0.773497
vn -0.596537 0.000116414 -0.802586
vn -0.634096 4.55217e-005 -0.773254
vn -0.671181 -5.57899e-005 -0.741293
vn -0.6338 0 -0.773497
vn -0.634096 4.55217e-005 -0.773254
vn -0.59572 7.06196e-006 0.803192
vn -0.634376 0 0.773025
vn -0.634385 -1.16579e-006 0.773018
vn -0.59572 7.06196e-006 0.803192
vn -0.634385 -1.16579e-006 0.773018
vn -0.555571 3.70352e-005 0.831469
vn -0.634385 2.86048e-007 0.773018
vn -0.634376 0 0.773025
vn -0.59572 7.06196e-006 0.803192
vn -0.634385 2.86048e-007 0.773018
vn -0.707113 -7.42303e-007 0.707101
vn -0.671539 -7.64774e-006 0.740969
vn -0.634385 2.86048e-007 0.773018
vn -0.671539 -7.64774e-006 0.740969
vn -0.634376 0 0.773025
vn -0.634376 0 0.773025
vn -0.671539 -7.64774e-006 0.740969
vn -0.634385 -1.16579e-006 0.773018
vn -0.671181 -5.57899e-005 -0.741293
vn -0.634096 4.55217e-005 -0.773254
vn -0.707369 -9.50166e-007 -0.706845
vn -0.70763 0 -0.706583
vn -0.671181 -5.57899e-005 -0.741293
vn -0.707369 -9.50166e-007 -0.706845
vn -0.741286 5.45245e-005 -0.671189
vn -0.70763 0 -0.706583
vn -0.707369 -9.50166e-007 -0.706845
vn -0.671539 -7.64774e-006 0.740969
vn -0.707122 0 0.707092
vn -0.707118 -1.07751e-005 0.707095
vn -0.671539 -7.64774e-006 0.740969
vn -0.707118 -1.07751e-005 0.707095
vn -0.634385 -1.16579e-006 0.773018
vn -0.707113 -7.42303e-007 0.707101
vn -0.707122 0 0.707092
vn -0.671539 -7.64774e-006 0.740969
vn -0.707122 0 0.707092
vn -0.740966 -3.23055e-005 0.671543
vn -0.707118 -1.07751e-005 0.707095
vn -0.741286 5.45245e-005 -0.671189
vn -0.707369 -9.50166e-007 -0.706845
vn -0.772868 1.62382e-005 -0.634567
vn -0.772724 0 -0.634742
vn -0.741286 5.45245e-005 -0.671189
vn -0.772868 1.62382e-005 -0.634567
vn -0.803024 -3.28995e-005 -0.595947
vn -0.772724 0 -0.634742
vn -0.772868 1.62382e-005 -0.634567
vn -0.803024 -3.28995e-005 -0.595947
vn -0.772868 1.62382e-005 -0.634567
vn -0.831448 -2.98871e-005 -0.555603
vn -0.831424 0 -0.555639
vn -0.803024 -3.28995e-005 -0.595947
vn -0.831448 -2.98871e-005 -0.555603
vn -0.857711 -6.90203e-006 -0.514132
vn -0.831424 0 -0.555639
vn -0.831448 -2.98871e-005 -0.555603
vn -0.857711 -6.90203e-006 -0.514132
vn -0.831448 -2.98871e-005 -0.555603
vn -0.88173 -5.0962e-005 -0.471754
vn -0.881538 0 -0.472113
vn -0.857711 -6.90203e-006 -0.514132
vn -0.88173 -5.0962e-005 -0.471754
vn -0.903751 -6.09669e-005 -0.428058
vn -0.88173 -5.0962e-005 -0.471754
vn -0.924011 -9.02595e-006 -0.382366
vn -0.924139 0 -0.382057
vn -0.903751 -6.09669e-005 -0.428058
vn -0.924011 -9.02595e-006 -0.382366
vn -0.903751 -6.09669e-005 -0.428058
vn -0.881538 0 -0.472113
vn -0.88173 -5.0962e-005 -0.471754
vn -0.941703 4.8947e-005 -0.336447
vn -0.924139 0 -0.382057
vn -0.924011 -9.02595e-006 -0.382366
vn -0.903957 -9.69806e-005 0.427622
vn -0.920068 -7.342e-005 0.391759
vn -0.881924 -2.30201e-005 0.471391
vn -0.881926 0 0.471388
vn -0.903957 -9.69806e-005 0.427622
vn -0.881924 -2.30201e-005 0.471391
vn -0.881906 -2.71262e-005 0.471426
vn -0.903957 -9.69806e-005 0.427622
vn -0.881926 0 0.471388
vn -0.903953 -0.000125731 0.427631
vn -0.923883 0 0.382676
vn -0.920068 -7.342e-005 0.391759
vn -0.881906 -2.71262e-005 0.471426
vn -0.903933 -0.000195001 0.427674
vn -0.903957 -9.69806e-005 0.427622
vn -0.903933 -0.000195001 0.427674
vn -0.903953 -0.000125731 0.427631
vn -0.903957 -9.69806e-005 0.427622
vn -0.903957 -9.69806e-005 0.427622
vn -0.903953 -0.000125731 0.427631
vn -0.920068 -7.342e-005 0.391759
vn -0.857736 8.79346e-006 0.514091
vn -0.881926 0 0.471388
vn -0.881924 -2.30201e-005 0.471391
vn -0.857736 8.79346e-006 0.514091
vn -0.881924 -2.30201e-005 0.471391
vn -0.831461 3.42526e-005 0.555584
vn -0.881906 -2.71262e-005 0.471426
vn -0.881926 0 0.471388
vn -0.857736 8.79346e-006 0.514091
vn -0.831448 0 0.555602
vn -0.857736 8.79346e-006 0.514091
vn -0.831461 3.42526e-005 0.555584
vn -0.941703 4.8947e-005 -0.336447
vn -0.924011 -9.02595e-006 -0.382366
vn -0.95673 -4.48712e-005 -0.290976
vn -0.956517 0 -0.291677
vn -0.941703 4.8947e-005 -0.336447
vn -0.95673 -4.48712e-005 -0.290976
vn -0.969794 -0.000108705 -0.243927
vn -0.95673 -4.48712e-005 -0.290976
vn -0.980744 -0.000103437 -0.1953
vn -0.980707 0 -0.195481
vn -0.969794 -0.000108705 -0.243927
vn -0.980744 -0.000103437 -0.1953
vn -0.969794 -0.000108705 -0.243927
vn -0.956517 0 -0.291677
vn -0.95673 -4.48712e-005 -0.290976
vn -0.989133 -2.90455e-005 -0.147023
vn -0.980744 -0.000103437 -0.1953
vn -0.99529 9.93412e-005 -0.0969428
vn -0.995395 0 -0.0958625
vn -0.989133 -2.90455e-005 -0.147023
vn -0.99529 9.93412e-005 -0.0969428
vn -0.989133 -2.90455e-005 -0.147023
vn -0.980707 0 -0.195481
vn -0.980744 -0.000103437 -0.1953
vn -0.998866 0.000161334 -0.0476163
vn -0.995395 0 -0.0958625
vn -0.99529 9.93412e-005 -0.0969428
vn -0.998794 6.84445e-006 0.0490996
vn -1 0.000126286 3.16435e-005
vn -0.995163 2.93041e-005 0.0982371
vn -0.995142 0 0.0984514
vn -0.998794 6.84445e-006 0.0490996
vn -0.995163 2.93041e-005 0.0982371
vn -0.998794 6.84445e-006 0.0490996
vn -1 0 6.32854e-005
vn -1 0.000126286 3.16435e-005
vn -0.989129 3.21801e-005 0.147051
vn -0.995163 2.93041e-005 0.0982371
vn -0.980726 5.59521e-005 0.195387
vn -0.980673 0 0.195656
vn -0.989129 3.21801e-005 0.147051
vn -0.980726 5.59521e-005 0.195387
vn -0.989129 3.21801e-005 0.147051
vn -0.995142 0 0.0984514
vn -0.995163 2.93041e-005 0.0982371
vn -0.969939 4.23318e-005 0.24335
vn -0.980726 5.59521e-005 0.195387
vn -0.952158 -0.000111344 0.305605
vn -0.957227 0 0.289338
vn -0.969939 4.23318e-005 0.24335
vn -0.952158 -0.000111344 0.305605
vn -0.969939 4.23318e-005 0.24335
vn -0.980673 0 0.195656
vn -0.980726 5.59521e-005 0.195387
vn -0.941478 -0.000237738 0.337073
vn -0.952158 -0.000111344 0.305605
vn -0.920068 -7.342e-005 0.391759
vn -0.923883 0 0.382676
vn -0.941478 -0.000237738 0.337073
vn -0.920068 -7.342e-005 0.391759
vn -0.941478 -0.000237738 0.337073
vn -0.941535 -0.000309779 0.336915
vn -0.952158 -0.000111344 0.305605
vn -0.941975 -4.05687e-005 0.335682
vn -0.957227 0 0.289338
vn -0.952158 -0.000111344 0.305605
vn -0.941535 -0.000309779 0.336915
vn -0.941975 -4.05687e-005 0.335682
vn -0.952158 -0.000111344 0.305605
vn -0.998866 0.000161334 -0.0476163
vn -0.99529 9.93412e-005 -0.0969428
vn -1 0.000126286 3.16435e-005
vn -1 0 6.32854e-005
vn -0.998866 0.000161334 -0.0476163
vn -1 0.000126286 3.16435e-005
vn 0 1 -0
vn 0 1 -0
vn 0 1 -0
vn 0 1 -0
vn 0 1 -0
vn 0 1 -0
vn 0 1 -0
vn 0 1 -0
vn 0 1 -0
vn 0 1 -0
vn 0 1 -0
vn 0 1 -0
vn 0 1 -0
vn 0 1 -0
vn 0 1 -0
vn 0 1 -0
vn 0 1 -0
vn 0 1 -0
vn 0 1 -0
vn 0 1 -0
vn 0 1 -0
vn 0 1 -0
vn 0 1 -0
vn 0 1 -0
vn 0 1 -0
vn 0 1 -0
vn 0 1 -0
vn 0 1 -0
vn 0 1 -0
vn 0 1 -0
vn 0 1 -0
vn 0 1 -0
vn 0 1 -0
vn 0 1 -0
vn 0 1 -0
vn 0 1 -0
vn 0 1 -0
vn 0 1 -0
vn 0 1 -0
vn 0 1 -0
vn 0 1 -0
vn 0 1 -0
vn 0 1 -0
vn 0 1 -0
vn 0 1 -0
vn 0 1 -0
vn 0 1 -0
vn 0 1 -0
vn 0 1 -0
vn 0 1 -0
vn 0 1 -0
vn 0 1 -0
vn 0 1 -0
vn 0 1 -0
vn 0 1 -0
vn 0 1 -0
vn 0 1 -0
vn 0 1 -0
vn 0 1 -0
vn 0 1 -0
vn 0 1 -0
vn 0 1 -0
vn 0 1 -0
vn 0 1 -0
vn 0 1 -0
vn 0 1 -0
vn 0 1 -0
vn 0 1 -0
vn 0 1 -0
vn 0 1 -0
vn 0 1 -0
vn 0 1 -0
vn 0.74098 -0.000149778 -0.671527
vn 0.718598 -4.99796e-005 -0.695426
vn 0.740964 -5.20093e-005 -0.671544
vn 0 1 -0
vn 0 1 -0
vn 0 1 -0
vn 0 1 -0
vn 0 1 -0
vn 0 1 -0
vn 0 1 -0
vn 0 1 -0
vn 0 1 -0
vn 0.740964 -5.20093e-005 -0.671544
vn 0.718598 -4.99796e-005 -0.695426
vn 0.707104 -1.5643e-006 -0.707109
vn 0.740956 -6.24968e-006 -0.671553
vn 0.740964 -5.20093e-005 -0.671544
vn 0.707104 -1.5643e-006 -0.707109
vn 0 1 -0
vn 0 1 -0
vn 0 1 -0
vn 0 1 -0
vn 0 1 -0
vn 0 1 -0
vn 0 1 -0
vn 0 1 -0
vn 0 1 -0
vn 0 1 -0
vn 0 1 -0
vn 0 1 -0
vn 0 1 -0
vn 0 1 -0
vn 0 1 -0
vn 0 1 -0
vn 0 1 -0
vn 0 1 -0
vn 0 1 -0
vn 0 1 -0
vn 0 1 -0
vn 0 1 -0
vn 0 1 -0
vn 0 1 -0
vn 0 1 -0
vn 0 1 -0
vn 0 1 -0
vn 0 1 -0
vn 0 1 -0
vn 0 1 -0
vn 0 -1 -0
vn 0 -1 -0
vn 0 -1 -0
vn 0 -1 -0
vn 0 -1 -0
vn 0 -1 -0
vn 0 -1 -0
vn 0 -1 -0
vn 0 -1 -0
vn 0 -1 -0
vn 0 -1 -0
vn 0 -1 -0
vn 0 -1 -0
vn 0 -1 -0
vn 0 -1 -0
vn 0 -1 -0
vn 0 -1 -0
vn 0 -1 -0
vn 0 -1 -0
vn 0 -1 -0
vn 0 -1 -0
vn 0 -1 -0
vn 0 -1 -0
vn 0 -1 -0
vn 0 -1 -0
vn 0 -1 -0
vn 0 -1 -0
vn 0 -1 -0
vn 0 -1 -0
vn 0 -1 -0
vn 0 -1 -0
vn 0 -1 -0
vn 0 -1 -0
vn 0 -1 -0
vn 0 -1 -0
vn 0 -1 -0
vn 0 -1 -0
vn 0 -1 -0
vn 0 -1 -0
vn 0 -1 -0
vn 0 -1 -0
vn 0 -1 -0
vn 0 -1 -0
vn 0 -1 -0
vn 0 -1 -0
vn 0 -1 -0
vn 0 -1 -0
vn 0 -1 -0
vn 0 -1 -0
vn 0 -1 -0
vn 0 -1 -0
vn 0 -1 -0
vn 0 -1 -0
vn 0 -1 -0
vn 0 -1 -0
vn 0 -1 -0
vn 0 -1 -0
vn 0 -1 -0
vn 0 -1 -0
vn 0 -1 -0
vn 0 -1 -0
vn 0 -1 -0
vn 0 -1 -0
vn -0.740945 -2.8721e-006 0.671566
vn -0.740946 -2.15029e-005 0.671565
vn -0.740966 -3.23055e-005 0.671543
vn -0.707113 -7.42303e-007 0.707101
vn -0.740966 -3.23055e-005 0.671543
vn -0.707122 0 0.707092
vn -0.707113 -7.42303e-007 0.707101
vn -0.740945 -2.8721e-006 0.671566
vn -0.740966 -3.23055e-005 0.671543
vn -0.740966 -3.23055e-005 0.671543
vn -0.740969 -8.24429e-005 0.671539
vn -0.707118 -1.07751e-005 0.707095
vn -0.740966 -3.23055e-005 0.671543
vn -0.740959 -0.000119257 0.67155
vn -0.740969 -8.24429e-005 0.671539
vn -0.740946 -2.15029e-005 0.671565
vn -0.740959 -0.000119257 0.67155
vn -0.740966 -3.23055e-005 0.671543
vn -0.803184 7.52938e-005 0.595731
vn -0.831461 3.42526e-005 0.555584
vn -0.803199 0.000225881 0.59571
vn -0.803184 7.52938e-005 0.595731
vn -0.831448 0 0.555602
vn -0.831461 3.42526e-005 0.555584
vn -0.840451 1.90902e-005 0.541887
vn -0.831448 0 0.555602
vn -0.803184 7.52938e-005 0.595731
vn -0.840451 1.90902e-005 0.541887
vn -0.857736 8.79346e-006 0.514091
vn -0.831448 0 0.555602
vn -0.857739 7.52952e-005 0.514085
vn -0.881906 -2.71262e-005 0.471426
vn -0.857736 8.79346e-006 0.514091
vn -0.840451 1.90902e-005 0.541887
vn -0.857739 7.52952e-005 0.514085
vn -0.857736 8.79346e-006 0.514091
vn 0 1 -0
vn 0 1 -0
vn 0 1 -0
vn 0 1 -0
vn 0 1 -0
vn 0 1 -0
vn -0.242991 -5.57401e-005 -0.970029
vn -0.242985 -0.00011148 -0.97003
vn -0.211125 -3.71999e-005 -0.977459
vn -0.0489361 -3.90719e-011 0.998802
vn 0 0 1
vn 0 0 1
vn 0 0 1
vn 0.0489361 3.90719e-011 0.998802
vn 0 0 1
vn 0 -3.59875e-007 -1
vn 0.0492054 -7.18877e-007 -0.998789
vn 0.0491453 3.9629e-006 -0.998792
vn 0 0 -1
vn 0 -3.59875e-007 -1
vn 0.0491453 3.9629e-006 -0.998792
vn -0.0492054 -7.18877e-007 -0.998789
vn 0 -3.59875e-007 -1
vn -0.0491453 3.96289e-006 -0.998792
vn 0 -3.59875e-007 -1
vn 0 0 -1
vn -0.0491453 3.96289e-006 -0.998792
vn 0.982422 -0.0695486 -0.173235
vn 0.982422 -0.0695486 -0.173235
vn 0.982421 -0.0695415 -0.17324
vn 0.982422 -0.0695557 -0.173231
vn 0.982422 -0.0695486 -0.173235
vn 0.982422 -0.0695486 -0.173235
vn -0.982422 -0.0695651 0.173229
vn -0.982422 -0.0695651 0.173229
vn -0.982421 -0.0695724 0.173233
vn -0.982422 -0.0695651 0.173229
vn -0.982423 -0.0695578 0.173224
vn -0.982422 -0.0695651 0.173229
vn 0 1 -0
vn 0 1 -0
vn 0 1 -0
vn 0 1 -0
vn 0 1 -0
vn 0 1 -0
vn 0 1 -0
vn 0 1 -0
vn 0 1 -0
vn 0 1 -0
vn 0 1 -0
vn 0 1 -0
vn 0 1 -0
vn 0 1 -0
vn 0 1 -0
vn 0 1 -0
vn 0 1 -0
vn 0 1 -0
vn 0 1 -0
vn 0 1 -0
vn 0 1 -0
vn 0 1 -0
vn 0 1 -0
vn 0 1 -0
g TempleFloor
usemtl TempleFloor
s 1
f 334//1 327//2 328//3
f 333//4 327//5 334//6
f 328//7 325//8 326//9
f 327//10 325//11 328//12
f 315//13 316//14 326//15
f 325//16 315//17 326//18
f 309//19 310//20 316//21
f 315//22 309//23 316//24
f 111//25 254//26 120//27
f 120//28 254//29 130//30
f 130//31 254//32 131//33
f 131//34 254//35 146//36
f 146//37 254//38 164//39
f 164//40 254//41 165//42
f 165//43 254//44 179//45
f 179//46 254//47 180//48
f 180//49 254//50 187//51
f 187//52 254//53 188//54
f 188//55 254//56 189//57
f 310//58 254//59 316//60
f 316//61 254//62 326//63
f 254//64 328//65 326//66
f 254//67 334//68 328//69
f 254//70 348//71 334//72
f 254//73 287//74 348//75
f 254//76 290//77 287//78
f 254//79 296//80 290//81
f 254//82 275//83 296//84
f 62//85 65//86 254//87
f 53//88 62//89 254//90
f 50//91 53//92 254//93
f 49//94 50//95 254//96
f 37//97 49//98 254//99
f 34//100 37//101 254//102
f 31//103 34//104 254//105
f 30//106 31//107 254//108
f 20//109 30//110 254//111
f 10//112 20//113 254//114
f 7//115 10//116 254//117
f 48//118 7//119 254//120
f 47//121 48//122 254//123
f 46//124 47//125 254//126
f 61//127 46//128 254//129
f 60//130 61//131 254//132
f 71//133 60//134 254//135
f 70//136 71//137 254//138
f 80//139 70//140 254//141
f 89//142 80//143 254//144
f 88//145 89//146 254//147
f 96//148 88//149 254//150
f 102//151 96//152 254//153
f 110//154 102//155 254//156
f 110//157 254//158 111//159
g TempleFloor_Bottom
usemtl TempleFloor_Bottom
s 1
f 253//160 257//161 259//162
f 253//163 259//164 261//165
f 253//166 261//167 262//168
f 253//169 262//170 268//171
f 253//172 268//173 272//174
f 253//175 272//176 273//177
f 253//178 273//179 284//180
f 253//181 284//182 285//183
f 253//184 285//185 301//186
f 253//187 301//188 302//189
f 253//190 302//191 303//192
f 253//193 303//194 306//195
f 253//196 306//197 312//198
f 253//199 312//200 320//201
f 226//202 221//203 253//204
f 221//205 220//206 253//207
f 220//208 219//209 253//210
f 219//211 217//212 253//213
f 217//214 218//215 253//216
f 218//217 232//218 253//219
f 232//220 231//221 253//222
f 231//223 236//224 253//225
f 236//226 235//227 253//228
f 235//229 239//230 253//231
f 239//232 241//233 253//234
f 241//235 242//236 253//237
f 242//238 245//239 253//240
f 245//241 247//242 253//243
g TempleFloor
usemtl TempleFloor
s 1
f 309//244 198//245 310//246
f 347//247 333//248 334//249
f 348//250 347//251 334//252
f 198//253 309//254 199//255
f 333//256 347//257 346//258
f 199//259 309//260 308//261
f 333//262 346//263 332//264
f 327//265 333//266 332//267
f 327//268 332//269 324//270
f 309//271 315//272 308//273
f 308//274 315//275 314//276
f 325//277 327//278 324//279
f 325//280 324//281 323//282
f 314//283 325//284 323//285
f 315//286 325//287 314//288
f 347//289 345//290 346//291
f 344//292 345//293 347//294
f 275//295 295//296 296//297
f 296//298 289//299 290//300
f 295//301 289//302 296//303
f 290//304 286//305 287//306
f 289//307 286//308 290//309
f 287//310 343//311 348//312
f 286//313 343//314 287//315
f 345//316 342//317 346//318
f 343//319 341//320 348//321
f 341//322 347//323 348//324
f 341//325 344//326 347//327
f 344//328 342//329 345//330
f 294//331 354//332 355//333
f 300//334 294//335 355//336
f 282//337 300//338 355//339
f 344//340 340//341 342//342
f 344//343 341//344 340//345
f 295//346 274//347 340//348
f 289//349 295//350 340//351
f 286//352 289//353 340//354
f 343//355 286//356 340//357
f 341//358 343//359 340//360
f 274//361 295//362 275//363
f 65//364 72//365 254//366
f 281//367 274//368 275//369
f 72//370 75//371 254//372
f 280//373 274//374 281//375
f 254//376 116//377 117//378
f 105//379 116//380 254//381
f 99//382 105//383 254//384
f 93//385 99//386 254//387
f 90//388 93//389 254//390
f 81//391 90//392 254//393
f 75//394 81//395 254//396
g TempleFloor_Bottom
usemtl TempleFloor_Bottom
s 1
f 318//397 253//398 320//399
f 331//400 253//401 318//402
f 339//403 253//404 331//405
f 228//406 227//407 253//408
f 227//409 224//410 253//411
f 224//412 226//413 253//414
f 351//415 253//416 339//417
f 349//418 253//419 351//420
f 229//421 230//422 253//423
f 230//424 228//425 253//426
f 293//427 253//428 349//429
f 233//430 229//431 253//432
f 299//433 253//434 293//435
f 234//436 233//437 253//438
f 279//439 253//440 299//441
f 237//442 234//443 253//444
f 238//445 237//446 253//447
f 256//448 253//449 258//450
f 255//451 253//452 256//453
f 255//454 250//455 253//456
f 250//457 248//458 253//459
f 248//460 246//461 253//462
f 246//463 243//464 253//465
f 243//466 244//467 253//468
f 244//469 240//470 253//471
f 240//472 238//473 253//474
f 253//475 251//476 257//477
f 247//478 249//479 253//480
f 249//481 252//482 253//483
f 253//484 252//485 251//486
g TempleFloor
usemtl TempleFloor
s 1
f 108//487 109//488 252//489
f 101//490 108//491 252//492
f 249//493 101//494 252//495
f 100//496 101//497 249//498
f 106//499 107//500 251//501
f 109//502 106//503 251//504
f 252//505 109//506 251//507
f 323//508 324//509 322//510
f 323//511 322//512 321//513
f 321//514 322//515 320//516
f 313//517 323//518 321//519
f 313//520 321//521 320//522
f 312//523 313//524 320//525
f 314//526 323//527 313//528
f 311//529 314//530 313//531
f 311//532 313//533 312//534
f 307//535 314//536 311//537
f 307//538 311//539 312//540
f 306//541 307//542 312//543
f 308//544 314//545 307//546
f 305//547 308//548 307//549
f 305//550 307//551 306//552
f 95//553 100//554 249//555
f 247//556 95//557 249//558
f 94//559 95//560 247//561
f 87//562 94//563 247//564
f 245//565 87//566 247//567
f 86//568 87//569 245//570
f 79//571 86//572 245//573
f 242//574 79//575 245//576
f 78//577 79//578 242//579
f 77//580 78//581 242//582
f 241//583 77//584 242//585
f 76//586 77//587 241//588
f 69//589 76//590 241//591
f 239//592 69//593 241//594
f 68//595 69//596 239//597
f 57//598 68//599 239//600
f 235//601 57//602 239//603
f 56//604 57//605 235//606
f 59//607 56//608 235//609
f 236//610 59//611 235//612
f 58//613 59//614 236//615
f 43//616 58//617 236//618
f 231//619 43//620 236//621
f 42//622 43//623 231//624
f 45//625 42//626 231//627
f 232//628 45//629 231//630
f 44//631 45//632 232//633
f 4//634 44//635 232//636
f 218//637 4//638 232//639
f 3//640 4//641 218//642
f 2//643 3//644 218//645
f 217//646 2//647 218//648
f 1//649 2//650 217//651
f 6//652 1//653 217//654
f 219//655 6//656 217//657
f 5//658 6//659 219//660
f 9//661 5//662 219//663
f 220//664 9//665 219//666
f 8//667 9//668 220//669
f 19//670 8//671 220//672
f 221//673 19//674 220//675
f 18//676 19//677 221//678
f 17//679 18//680 221//681
f 226//682 17//683 221//684
f 225//685 17//686 226//687
f 29//688 225//689 226//690
f 193//691 197//692 303//693
f 302//694 193//695 303//696
f 192//697 193//698 302//699
f 191//700 192//701 302//702
f 301//703 191//704 302//705
f 190//706 191//707 301//708
f 186//709 190//710 301//711
f 285//712 186//713 301//714
f 185//715 186//716 285//717
f 184//718 185//719 285//720
f 284//721 184//722 285//723
f 183//724 184//725 284//726
f 178//727 183//728 284//729
f 273//730 178//731 284//732
f 177//733 178//734 273//735
f 176//736 177//737 273//738
f 272//739 176//740 273//741
f 175//742 176//743 272//744
f 163//745 175//746 272//747
f 268//748 163//749 272//750
f 162//751 163//752 268//753
f 145//754 162//755 268//756
f 262//757 145//758 268//759
f 144//760 145//761 262//762
f 143//763 144//764 262//765
f 261//766 143//767 262//768
f 142//769 143//770 261//771
f 129//772 142//773 261//774
f 259//775 129//776 261//777
f 128//778 129//779 259//780
f 119//781 128//782 259//783
f 257//784 119//785 259//786
f 118//787 119//788 257//789
f 107//790 118//791 257//792
f 251//793 107//794 257//795
f 199//796 308//797 304//798
f 304//799 308//800 305//801
f 304//802 305//803 306//804
f 196//805 199//806 304//807
f 303//808 304//809 306//810
f 196//811 304//812 303//813
f 195//814 196//815 303//816
f 197//817 195//818 303//819
f 319//820 330//821 331//822
f 319//823 331//824 318//825
f 332//826 330//827 319//828
f 324//829 332//830 319//831
f 324//832 319//833 317//834
f 317//835 319//836 318//837
f 322//838 317//839 318//840
f 322//841 318//842 320//843
f 324//844 317//845 322//846
f 29//847 226//848 224//849
f 28//850 29//851 224//852
f 27//853 224//854 227//855
f 33//856 27//857 227//858
f 27//859 28//860 224//861
f 32//862 227//863 228//864
f 36//865 32//866 228//867
f 32//868 33//869 227//870
f 35//871 36//872 228//873
f 332//874 346//875 329//876
f 332//877 329//878 330//879
f 330//880 329//881 331//882
f 329//883 338//884 339//885
f 329//886 339//887 331//888
f 346//889 338//890 329//891
f 340//892 355//893 337//894
f 340//895 337//896 336//897
f 336//898 337//899 339//900
f 346//901 342//902 335//903
f 346//904 335//905 338//906
f 338//907 335//908 339//909
f 342//910 340//911 335//912
f 340//913 336//914 335//915
f 335//916 336//917 339//918
f 35//919 228//920 230//921
f 41//922 35//923 230//924
f 40//925 41//926 230//927
f 355//928 354//929 353//930
f 355//931 353//932 352//933
f 352//934 353//935 351//936
f 337//937 352//938 351//939
f 337//940 351//941 339//942
f 355//943 352//944 337//945
f 40//946 230//947 229//948
f 39//949 40//950 229//951
f 38//952 39//953 229//954
f 354//955 294//956 288//957
f 354//958 288//959 350//960
f 350//961 288//962 349//963
f 353//964 350//965 349//966
f 353//967 349//968 351//969
f 354//970 350//971 353//972
f 38//973 229//974 233//975
f 52//976 38//977 233//978
f 288//979 292//980 293//981
f 288//982 293//983 349//984
f 294//985 292//986 288//987
f 51//988 52//989 233//990
f 294//991 300//992 291//993
f 294//994 291//995 292//996
f 292//997 291//998 293//999
f 51//1000 233//1001 234//1002
f 55//1003 51//1004 234//1005
f 54//1006 55//1007 234//1008
f 291//1009 298//1010 299//1011
f 291//1012 299//1013 293//1014
f 300//1015 298//1016 291//1017
f 300//1018 282//1019 297//1020
f 300//1021 297//1022 298//1023
f 298//1024 297//1025 299//1026
f 54//1027 234//1028 237//1029
f 64//1030 54//1031 237//1032
f 63//1033 64//1034 237//1035
f 297//1036 278//1037 279//1038
f 297//1039 279//1040 299//1041
f 282//1042 278//1043 297//1044
f 278//1045 277//1046 279//1047
f 63//1048 237//1049 238//1050
f 67//1051 63//1052 238//1053
f 66//1054 67//1055 238//1056
f 66//1057 238//1058 240//1059
f 74//1060 66//1061 240//1062
f 73//1063 74//1064 240//1065
f 73//1066 240//1067 244//1068
f 85//1069 73//1070 244//1071
f 84//1072 244//1073 243//1074
f 83//1075 84//1076 243//1077
f 84//1078 85//1079 244//1080
f 82//1081 83//1082 243//1083
f 265//1084 266//1085 267//1086
f 264//1087 265//1088 267//1089
f 263//1090 265//1091 264//1092
f 160//1093 161//1094 266//1095
f 263//1096 159//1097 265//1098
f 159//1099 160//1100 265//1101
f 265//1102 160//1103 266//1104
f 271//1105 264//1106 267//1107
f 271//1108 267//1109 270//1110
f 263//1111 264//1112 271//1113
f 269//1114 271//1115 270//1116
f 82//1117 243//1118 246//1119
f 92//1120 82//1121 246//1122
f 91//1123 246//1124 248//1125
f 98//1126 91//1127 248//1128
f 91//1129 92//1130 246//1131
f 97//1132 248//1133 250//1134
f 104//1135 97//1136 250//1137
f 97//1138 98//1139 248//1140
f 103//1141 104//1142 250//1143
f 115//1144 255//1145 256//1146
f 114//1147 115//1148 256//1149
f 115//1150 113//1151 255//1152
f 112//1153 256//1154 258//1155
f 127//1156 112//1157 258//1158
f 112//1159 114//1160 256//1161
f 126//1162 258//1163 260//1164
f 141//1165 126//1166 260//1167
f 126//1168 127//1169 258//1170
f 140//1171 260//1172 266//1173
f 161//1174 140//1175 266//1176
f 140//1177 139//1178 260//1179
f 138//1180 141//1181 260//1182
f 139//1183 138//1184 260//1185
f 103//1186 250//1187 255//1188
f 113//1189 103//1190 255//1191
f 168//1192 281//1193 275//1194
f 167//1195 168//1196 275//1197
f 254//1198 167//1199 275//1200
f 254//1201 166//1202 167//1203
f 158//1204 205//1205 159//1206
f 158//1207 159//1208 157//1209
f 157//1210 159//1211 156//1212
f 156//1213 159//1214 155//1215
f 214//1216 215//1217 280//1218
f 213//1219 282//1220 355//1221
f 213//1222 212//1223 282//1224
f 211//1225 355//1226 340//1227
f 211//1228 213//1229 355//1230
f 210//1231 211//1232 340//1233
f 159//1234 263//1235 155//1236
f 155//1237 263//1238 154//1239
f 215//1240 209//1241 280//1242
f 209//1243 208//1244 280//1245
f 154//1246 263//1247 174//1248
f 173//1249 154//1250 174//1251
f 280//1252 207//1253 274//1254
f 208//1255 207//1256 280//1257
f 274//1258 210//1259 340//1260
f 207//1261 210//1262 274//1263
f 214//1264 280//1265 276//1266
f 168//1267 206//1268 281//1269
f 254//1270 152//1271 166//1272
f 254//1273 151//1274 152//1275
f 276//1276 280//1277 281//1278
f 206//1279 276//1280 281//1281
f 254//1282 133//1283 151//1284
f 254//1285 132//1286 133//1287
f 254//1288 136//1289 132//1290
f 254//1291 121//1292 136//1293
f 201//1294 203//1295 202//1296
f 254//1297 125//1298 121//1299
f 201//1300 117//1301 203//1302
f 124//1303 117//1304 201//1305
f 254//1306 117//1307 124//1308
f 254//1309 124//1310 125//1311
g TempleFloor_Bottom
usemtl TempleFloor_Bottom
s 1
f 182//1312 150//1313 279//1314
f 150//1315 253//1316 279//1317
f 149//1318 253//1319 150//1320
f 147//1321 253//1322 148//1323
f 148//1324 253//1325 149//1326
f 270//1327 170//1328 181//1329
f 270//1330 169//1331 170//1332
f 135//1333 253//1334 147//1335
f 267//1336 169//1337 270//1338
f 267//1339 153//1340 169//1341
f 134//1342 253//1343 135//1344
f 204//1345 153//1346 267//1347
f 266//1348 204//1349 267//1350
f 123//1351 253//1352 134//1353
f 137//1354 204//1355 266//1356
f 260//1357 137//1358 266//1359
f 260//1360 200//1361 137//1362
f 258//1363 200//1364 260//1365
f 258//1366 122//1367 200//1368
f 258//1369 253//1370 122//1371
f 122//1372 253//1373 123//1374
g TempleFloor
usemtl TempleFloor
s 1
f 212//1375 283//1376 277//1377
f 282//1378 277//1379 278//1380
f 282//1381 212//1382 277//1383
f 277//1384 182//1385 279//1386
f 277//1387 216//1388 182//1389
f 283//1390 216//1391 277//1392
f 172//1393 270//1394 181//1395
f 172//1396 269//1397 270//1398
f 171//1399 269//1400 172//1401
f 171//1402 271//1403 269//1404
f 174//1405 263//1406 271//1407
f 171//1408 174//1409 271//1410
f 189//1411 254//1412 194//1413
f 194//1414 254//1415 310//1416
f 198//1417 194//1418 310//1419
f 16//1420 223//1421 30//1422
f 223//1423 26//1424 30//1425
f 222//1426 15//1427 17//1428
f 225//1429 222//1430 17//1431
f 25//1432 222//1433 29//1434
f 222//1435 225//1436 29//1437
f 21//1438 24//1439 22//1440
f 23//1441 24//1442 21//1443
f 12//1444 13//1445 14//1446
f 12//1447 11//1448 13//1449
f 13//1450 16//1451 14//1452
f 25//1453 21//1454 22//1455
f 26//1456 25//1457 22//1458
f 13//1459 15//1460 16//1461
f 15//1462 222//1463 16//1464
f 222//1465 25//1466 26//1467
f 223//1468 222//1469 26//1470
f 222//1471 223//1472 16//1473
